[configuracao]
campos=6
imprimir12cpi=1
imprimircondensado=0

[cabecalho]
titulo=CODIGO COD. FABRIC.    DESCRICAO DO PRODUTO                     UN   ESTOQUE    P.VENDA
relatorio=LISTA DE PRECOS

[campos]
campo6=TRAN(VAREJO,"@E 999,999.99")
campo5=QUANT
campo4=UN
campo3=PONTO(DESCRICAO,40)
campo2=N_ORIGINAL
campo1=CODIGO
